Lab05/LAB5_mach/Lab5_02/Lab5/simulation/qsim/controller.msim.vcd
$comment
	File created using the following command:
		vcd file controller.msim.vcd -direction
$end
$date
	Tue Nov 19 22:37:17 2024
$end
$version
	ModelSim Version 10.1d
$end
$timescale
	1ps
$end
$scope module Lab5_vlg_vec_tst $end
$var reg 1 ! CLK $end
$var reg 4 " DATA [3:0] $end
$var reg 1 # Start $end
$var wire 1 $ done $end
$var wire 1 % RESULT [3] $end
$var wire 1 & RESULT [2] $end
$var wire 1 ' RESULT [1] $end
$var wire 1 ( RESULT [0] $end
$var wire 1 ) sampler $end
$scope module i1 $end
$var wire 1 * gnd $end
$var wire 1 + vcc $end
$var wire 1 , unknown $end
$var tri1 1 - devclrn $end
$var tri1 1 . devpor $end
$var tri1 1 / devoe $end
$var wire 1 0 inst|inst3|inst38~0_combout $end
$var wire 1 1 inst2|inst|inst|inst~regout $end
$var wire 1 2 inst2|inst|inst4|inst~regout $end
$var wire 1 3 inst2|inst|inst5|inst~regout $end
$var wire 1 4 inst2|inst|inst|inst2~combout $end
$var wire 1 5 inst2|inst|inst4|inst2~combout $end
$var wire 1 6 inst2|inst|inst5|inst2~combout $end
$var wire 1 7 inst2|inst1|inst2|inst7|6~3_combout $end
$var wire 1 8 inst2|inst1|inst2|inst7|6~4_combout $end
$var wire 1 9 inst2|inst1|inst|inst|inst8|inst3|5~1_combout $end
$var wire 1 : inst2|inst|B[0]~3_combout $end
$var wire 1 ; inst|inst4|inst32~combout $end
$var wire 1 < inst2|inst|B[3]~8_combout $end
$var wire 1 = inst2|inst6|inst~combout $end
$var wire 1 > inst2|inst6|inst2~combout $end
$var wire 1 ? inst2|inst6|inst3~combout $end
$var wire 1 @ Start~combout $end
$var wire 1 A inst2|inst|B[1]~0_combout $end
$var wire 1 B inst|inst3|inst27~combout $end
$var wire 1 C inst2|inst|inst17|inst2~combout $end
$var wire 1 D inst2|inst|inst9|inst~regout $end
$var wire 1 E inst2|inst|inst19|inst~0_combout $end
$var wire 1 F inst2|inst|A[2]~1_combout $end
$var wire 1 G CLK~combout $end
$var wire 1 H inst2|inst8|inst1~combout $end
$var wire 1 I inst2|inst2|inst|5~6_combout $end
$var wire 1 J inst|inst4|inst18~0_combout $end
$var wire 1 K inst|inst4|inst35~combout $end
$var wire 1 L inst2|inst|inst13|inst~regout $end
$var wire 1 M inst2|inst|A[0]~3_combout $end
$var wire 1 N inst2|inst8|inst3~combout $end
$var wire 1 O inst2|inst2|inst3|5~0_combout $end
$var wire 1 P inst2|inst2|inst3|5~1_combout $end
$var wire 1 Q inst2|inst5|inst3~combout $end
$var wire 1 R inst|inst4|inst13~combout $end
$var wire 1 S inst2|inst|inst15|inst~regout $end
$var wire 1 T inst2|inst|inst17|inst1~combout $end
$var wire 1 U inst2|inst|inst7|inst~regout $end
$var wire 1 V inst|inst4|inst31~0_combout $end
$var wire 1 W inst2|inst|B[0]~4_combout $end
$var wire 1 X inst|inst4|inst40~combout $end
$var wire 1 Y inst2|inst|B[0]~5_combout $end
$var wire 1 Z inst2|inst9|inst3~combout $end
$var wire 1 [ inst|inst4|inst39~combout $end
$var wire 1 \ inst2|inst1|inst|inst|inst8|inst3|5~0_combout $end
$var wire 1 ] inst2|inst|inst6|inst~regout $end
$var wire 1 ^ inst2|inst|B[1]~6_combout $end
$var wire 1 _ inst2|inst|inst14|inst~regout $end
$var wire 1 ` inst2|inst|B[1]~7_combout $end
$var wire 1 a inst2|inst9|inst2~combout $end
$var wire 1 b inst2|inst2|inst1|5~6_combout $end
$var wire 1 c inst2|inst2|inst1|5~4_combout $end
$var wire 1 d inst2|inst2|inst1|5~7_combout $end
$var wire 1 e inst2|inst2|inst1|5~5_combout $end
$var wire 1 f inst2|inst5|inst2~combout $end
$var wire 1 g inst2|inst|inst12|inst~regout $end
$var wire 1 h inst2|inst|A[1]~2_combout $end
$var wire 1 i inst2|inst8|inst2~combout $end
$var wire 1 j inst2|inst1|inst1|inst|inst8|inst3|5~0_combout $end
$var wire 1 k inst2|inst1|inst1|inst|inst8|inst3|5~1_combout $end
$var wire 1 l inst2|inst2|inst|5~4_combout $end
$var wire 1 m inst2|inst2|inst|5~7_combout $end
$var wire 1 n inst2|inst2|inst|5~5_combout $end
$var wire 1 o inst2|inst5|inst1~combout $end
$var wire 1 p inst2|inst3|inst2|5~0_combout $end
$var wire 1 q inst2|inst6|inst1~combout $end
$var wire 1 r inst2|inst|inst1|inst2~combout $end
$var wire 1 s inst2|inst|inst|inst3~combout $end
$var wire 1 t inst2|inst|inst1|inst~regout $end
$var wire 1 u inst2|inst|inst3|inst~regout $end
$var wire 1 v inst2|inst|B[2]~1_combout $end
$var wire 1 w inst2|inst|inst11|inst~regout $end
$var wire 1 x inst2|inst|B[2]~2_combout $end
$var wire 1 y inst2|inst9|inst1~combout $end
$var wire 1 z inst2|inst1|inst2|inst7|6~2_combout $end
$var wire 1 { inst2|inst1|inst2|inst7|6~6_combout $end
$var wire 1 | inst2|inst1|inst2|inst7|6~5_combout $end
$var wire 1 } inst2|inst2|inst2|5~2_combout $end
$var wire 1 ~ inst2|inst2|inst2|5~3_combout $end
$var wire 1 !! inst2|inst|inst10|inst~regout $end
$var wire 1 "! inst2|inst|inst2|inst~regout $end
$var wire 1 #! inst2|inst|B[3]~9_combout $end
$var wire 1 $! inst2|inst|B[3]~10_combout $end
$var wire 1 %! inst2|inst9|inst~combout $end
$var wire 1 &! inst2|inst2|inst2|5~7_combout $end
$var wire 1 '! inst2|inst2|inst2|5~4_combout $end
$var wire 1 (! inst2|inst2|inst2|5~5_combout $end
$var wire 1 )! inst2|inst2|inst2|5~6_combout $end
$var wire 1 *! inst2|inst5|inst~combout $end
$var wire 1 +! inst2|inst|inst8|inst~regout $end
$var wire 1 ,! inst2|inst|A[3]~0_combout $end
$var wire 1 -! inst2|inst8|inst~combout $end
$var wire 1 .! inst2|inst4|inst2~0_combout $end
$var wire 1 /! inst2|inst4|inst2~1_combout $end
$var wire 1 0! inst|inst3|inst26~2_combout $end
$var wire 1 1! inst|inst3|inst26~3_combout $end
$var wire 1 2! inst|inst1~regout $end
$var wire 1 3! inst|inst~0_combout $end
$var wire 1 4! inst|inst~regout $end
$var wire 1 5! inst|inst3|inst38~combout $end
$var wire 1 6! inst|inst2~regout $end
$var wire 1 7! inst2|inst3|inst1|6~combout $end
$var wire 1 8! inst2|inst3|inst3|5~0_combout $end
$var wire 1 9! inst2|inst3|inst4|5~0_combout $end
$var wire 1 :! DATA~combout [3] $end
$var wire 1 ;! DATA~combout [2] $end
$var wire 1 <! DATA~combout [1] $end
$var wire 1 =! DATA~combout [0] $end
$upscope $end
$upscope $end
$enddefinitions $end
#0
$dumpvars
0!
b1111 "
1#
z%
x)
0*
1+
x,
1-
1.
1/
10
01
02
03
04
05
06
07
08
09
0:
0;
0<
x=
x>
x?
1@
1A
0B
0C
0D
0E
0F
0G
xH
xI
0J
0K
0L
0M
xN
xO
xP
xQ
0R
0S
0T
0U
0V
0W
0X
0Y
xZ
0[
x\
0]
0^
0_
0`
xa
xb
xc
0$
z(
z'
z&
0d
xe
xf
0g
0h
xi
0j
xk
xl
0m
xn
xo
xp
xq
0r
0s
0t
0u
0v
0w
0x
xy
xz
1{
x|
0}
0~
0!!
0"!
0#!
0$!
x%!
x&!
x'!
x(!
x)!
x*!
0+!
0,!
x-!
x.!
x/!
00!
01!
02!
03!
04!
15!
06!
07!
x8!
x9!
1=!
1<!
1;!
1:!
$end
#5000
1!
1G
0)
0-!
0%!
0y
0i
0a
0Z
0N
0H
0=
0.!
0'!
0&!
0p
0|
1z
0l
0I
09!
08!
0/!
0k
0c
0b
0\
1O
1(!
0q
1n
0?
0>
1e
1P
1)!
1o
1f
1Q
1*!
16!
11!
1.!
1&!
0z
1s
1b
1[
1V
1K
1I
1B
19
17
0(!
0O
1r
16
15
14
#10000
0#
0!
0@
0G
1)
00
05!
#15000
1!
1G
0)
06!
12!
1t
13
12
11
01!
0.!
0&!
1z
0s
0b
0[
0V
0I
1E
1C
0B
0A
1<
1:
07
10!
1J
10
15!
1(!
1|
1j
1\
1,!
1h
1M
1F
1v
1`
0)!
0r
0P
06
05
04
1$!
1Y
11!
1)!
1k
1d
1-!
1i
1N
1H
1x
1a
0*!
0Q
1%!
1Z
1*!
1~
1m
0e
1.!
1'!
1&!
1p
19!
18!
1/!
1c
1b
1I
18
1y
0(!
0f
1q
1?
1>
0d
1e
1}
0|
1l
08
0)!
1f
0e
0}
0m
0*!
0f
0n
0o
#20000
0!
0G
1)
#25000
1!
1G
0)
16!
13!
01!
0&!
0b
1[
1T
0I
0E
0C
1A
0<
0:
09
17
1(!
1e
0'!
0l
0c
1n
0,!
0h
0M
0F
0v
0`
0x
0$!
0Y
18
1)!
1f
0(!
1m
1d
1o
0-!
0i
0N
0H
0a
0y
0%!
0Z
1}
1*!
0)!
0n
0e
1&!
0p
09!
08!
0/!
0j
1b
0\
1O
0z
1I
08
0*!
0o
0f
1(!
0q
0?
0>
0k
1e
0d
1P
0~
1n
0}
1o
1f
1)!
0m
0e
1Q
0(!
0f
1*!
0n
0)!
0*!
0o
#30000
0!
0G
1)
#35000
1!
1G
0)
06!
14!
02!
1U
11!
0.!
0{
1z
1s
0T
1R
0K
1E
0A
1;
19
07
00!
0J
00
05!
10!
0O
1,!
1h
1M
1F
1W
01!
11!
0P
1-!
1i
1N
1H
1Y
0Q
1.!
1'!
1p
19!
18!
1/!
1k
1j
1c
1l
1Z
15!
00!
1q
1?
1>
0k
1\
1O
01!
1r
16
15
1P
1Q
#40000
0!
0G
1)
#45000
1!
1G
0)
16!
1S
01
1{
0s
1m
1V
0R
1K
0E
1C
1A
17
0,!
1n
0r
06
05
1(!
1k
0O
18
0h
0M
0F
1v
1`
1^
0-!
1o
1)!
1}
0m
0P
0i
0N
0H
1a
0`
0'!
0p
1*!
1~
0n
0Q
09!
08!
0/!
0\
1O
0z
0l
08
0a
0(!
0q
1(!
0o
0?
0>
0k
1d
1P
1m
0}
0j
0c
0)!
1)!
0~
0m
1e
1Q
1n
0d
0*!
1*!
0(!
0n
1f
1o
0e
0)!
0o
0f
0*!
#50000
0!
0G
1)
#55000
1!
1G
0)
06!
1L
0.!
0{
1z
1s
0V
1R
0K
1E
0C
0A
07
1M
05!
10!
0O
1h
1F
0v
1`
0^
1x
1N
11!
0P
1i
1H
0x
1a
0`
1y
1/!
1\
1O
0Q
19!
18!
1k
1c
0b
1|
1l
0I
0y
0a
15!
00!
1P
1Q
1?
1>
1e
1n
0|
1I
1j
1b
01!
16
15
1f
1o
0n
0k
0e
0f
0o
#60000
0!
0G
1)
#65000
1!
1G
0)
16!
0t
1.!
1{
0s
1m
1V
0R
1K
0E
1C
1A
17
0F
1n
06
05
1k
0O
18
0h
1v
1`
1^
0H
1o
1}
0m
0P
0i
1a
0`
08!
0z
0l
08
1~
0n
0Q
09!
0a
0>
1m
0}
1(!
0o
0?
0j
0c
1n
0~
1)!
1o
0k
1d
0(!
1*!
0m
1e
0)!
0*!
0n
1f
0o
#70000
0!
0G
1)
#75000
1!
1G
0)
06!
1g
0L
0.!
0{
1z
1s
0d
0V
1R
0K
1E
0C
0A
07
1h
0M
0e
1O
1M
0v
1`
0^
1x
1i
0N
0f
1P
1N
0x
1a
0`
1y
19!
1k
1j
1c
0\
0O
1Q
1\
1O
0y
0j
0b
0a
0z
1l
1?
0k
0P
0Q
16
1k
1P
1z
0l
1e
1j
1b
1Q
1f
0k
0e
0f
#80000
0!
0G
1)
#85000
1!
1G
0)
16!
02
1.!
1{
0z
0s
1V
0R
1K
0E
1C
1A
17
0h
06
1k
0O
1h
0M
1v
1^
0i
1m
0P
1i
0N
09!
0j
0c
1n
0Q
19!
1j
1c
0\
1O
0?
1d
1o
1?
0k
1P
1e
0m
1Q
1f
0n
0o
#90000
0!
0G
1)
#95000
1!
1G
0)
06!
1L
0.!
0{
1z
1s
0d
0V
1R
0K
1E
0C
0A
07
1M
0e
16
0O
0h
0v
1`
0^
1x
1N
0f
0P
0i
0x
1a
0`
1y
1\
1O
0Q
09!
0y
0a
0z
1l
1P
1Q
0?
1z
0l
0j
0c
06
#100000
0!
0G
1)
#105000
1!
1G
0)
16!
03
1.!
1{
0z
0s
1d
1V
0R
1K
0E
1C
1A
17
0M
1e
0O
1h
1M
1v
1^
0N
1f
0P
1i
1N
0/!
0\
1O
0Q
19!
1/!
1k
1j
1c
1\
0O
0d
1P
1Q
1?
1m
0P
0e
0Q
1n
0f
1o
#110000
0!
0G
1)
#115000
1!
1G
0)
06!
0g
0L
1D
0.!
0{
1z
1s
0m
0V
1R
0K
1E
0C
0A
07
0h
0M
1F
0n
16
0k
1O
0F
0v
1`
0^
1x
0i
0N
1H
0o
1P
0H
0x
1a
0`
1y
09!
18!
0j
0c
0\
0O
1l
1Q
08!
0/!
0z
0y
1j
1c
0a
0?
1>
0P
0Q
06
0>
05!
10!
1z
0l
0j
0c
15
05
11!
#120000
0!
0G
1)
#125000
1!
1G
0)
12!
0S
1.!
1{
0s
1V
0R
1K
0E
1C
1A
17
10
15!
0W
1O
1F
1v
1^
1x
0Y
1P
1H
0x
1y
0Z
1Q
18!
1/!
1|
1l
0I
18
0y
0O
1>
1}
1m
1n
0|
1I
0P
1~
1o
0}
0Q
1(!
0~
1)!
0(!
1*!
0)!
0*!
#130000
0!
0G
1)
#135000
1!
1G
0)
16!
03!
01!
1X
0C
0;
08!
1p
0v
1`
0^
1$
0(
1'
0&
0%
0>
1q
1x
1a
0`
0'
1&
1y
1j
1c
0a
1|
0I
1d
0j
0c
1}
0n
1e
0d
1~
0o
1f
0e
1(!
0f
1)!
1*!
#140000
0!
0G
1)
#145000
1!
1G
0)
06!
04!
02!
11!
0.!
0&!
0m
0b
0[
0X
0V
0K
1I
09
07
00!
00
05!
1e
18!
0p
1O
08
01!
0$
z(
z'
z&
z%
1f
1>
0q
1P
0}
1Q
0~
#150000
0!
0G
1)
#155000
1!
1G
0)
#160000
0!
0G
1)
#165000
1!
1G
0)
#170000
0!
0G
1)
#175000
1!
1G
0)
#180000
0!
0G
1)
#185000
1!
1G
0)
#190000
0!
0G
1)
#195000
1!
1G
0)
#200000
0!
0G
1)
#205000
1!
1G
0)
#210000
0!
0G
1)
#215000
1!
1G
0)
#220000
0!
0G
1)
#225000
1!
1G
0)
#230000
0!
0G
1)
#235000
1!
1G
0)
#240000
0!
0G
1)
#245000
1!
1G
0)
#250000
0!
0G
1)
#255000
1!
1G
0)
#260000
0!
0G
1)
#265000
1!
1G
0)
#270000
0!
0G
1)
#275000
1!
1G
0)
#280000
0!
0G
1)
#285000
1!
1G
0)
#290000
0!
0G
1)
#295000
1!
1G
0)
#300000
0!
0G
1)
#305000
1!
1G
0)
#310000
0!
0G
1)
#315000
1!
1G
0)
#320000
0!
0G
1)
#325000
1!
1G
0)
#330000
0!
0G
1)
#335000
1!
1G
0)
#340000
0!
0G
1)
#345000
1!
1G
0)
#350000
0!
0G
1)
#355000
1!
1G
0)
#360000
0!
0G
1)
#365000
1!
1G
0)
#370000
0!
0G
1)
#375000
1!
1G
0)
#380000
0!
0G
1)
#385000
1!
1G
0)
#390000
0!
0G
1)
#395000
1!
1G
0)
#400000
0!
0G
1)
#405000
1!
1G
0)
#410000
0!
0G
1)
#415000
1!
1G
0)
#420000
0!
0G
1)
#425000
1!
1G
0)
#430000
0!
0G
1)
#435000
1!
1G
0)
#440000
0!
0G
1)
#445000
1!
1G
0)
#450000
0!
0G
1)
#455000
1!
1G
0)
#460000
0!
0G
1)
#465000
1!
1G
0)
#470000
0!
0G
1)
#475000
1!
1G
0)
#480000
0!
0G
1)
#485000
1!
1G
0)
#490000
0!
0G
1)
#495000
1!
1G
0)
#500000
0!
0G
1)
#505000
1!
1G
0)
#510000
0!
0G
1)
#515000
1!
1G
0)
#520000
0!
0G
1)
#525000
1!
1G
0)
#530000
0!
0G
1)
#535000
1!
1G
0)
#540000
0!
0G
1)
#545000
1!
1G
0)
#550000
0!
0G
1)
#555000
1!
1G
0)
#560000
0!
0G
1)
#565000
1!
1G
0)
#570000
0!
0G
1)
#575000
1!
1G
0)
#580000
0!
0G
1)
#585000
1!
1G
0)
#590000
0!
0G
1)
#595000
1!
1G
0)
#600000
0!
0G
1)
#605000
1!
1G
0)
#610000
0!
0G
1)
#615000
1!
1G
0)
#620000
0!
0G
1)
#625000
1!
1G
0)
#630000
0!
0G
1)
#635000
1!
1G
0)
#640000
0!
0G
1)
#645000
1!
1G
0)
#650000
0!
0G
1)
#655000
1!
1G
0)
#660000
0!
0G
1)
#665000
1!
1G
0)
#670000
0!
0G
1)
#675000
1!
1G
0)
#680000
0!
0G
1)
#685000
1!
1G
0)
#690000
0!
0G
1)
#695000
1!
1G
0)
#700000
0!
0G
1)
#705000
1!
1G
0)
#710000
0!
0G
1)
#715000
1!
1G
0)
#720000
0!
0G
1)
#725000
1!
1G
0)
#730000
0!
0G
1)
#735000
1!
1G
0)
#740000
0!
0G
1)
#745000
1!
1G
0)
#750000
0!
0G
1)
#755000
1!
1G
0)
#760000
0!
0G
1)
#765000
1!
1G
0)
#770000
0!
0G
1)
#775000
1!
1G
0)
#780000
0!
0G
1)
#785000
1!
1G
0)
#790000
0!
0G
1)
#795000
1!
1G
0)
#800000
0!
0G
1)
#805000
1!
1G
0)
#810000
0!
0G
1)
#815000
1!
1G
0)
#820000
0!
0G
1)
#825000
1!
1G
0)
#830000
0!
0G
1)
#835000
1!
1G
0)
#840000
0!
0G
1)
#845000
1!
1G
0)
#850000
0!
0G
1)
#855000
1!
1G
0)
#860000
0!
0G
1)
#865000
1!
1G
0)
#870000
0!
0G
1)
#875000
1!
1G
0)
#880000
0!
0G
1)
#885000
1!
1G
0)
#890000
0!
0G
1)
#895000
1!
1G
0)
#900000
0!
0G
1)
#905000
1!
1G
0)
#910000
0!
0G
1)
#915000
1!
1G
0)
#920000
0!
0G
1)
#925000
1!
1G
0)
#930000
0!
0G
1)
#935000
1!
1G
0)
#940000
0!
0G
1)
#945000
1!
1G
0)
#950000
0!
0G
1)
#955000
1!
1G
0)
#960000
0!
0G
1)
#965000
1!
1G
0)
#970000
0!
0G
1)
#975000
1!
1G
0)
#980000
0!
0G
1)
#985000
1!
1G
0)
#990000
0!
0G
1)
#995000
1!
1G
0)
