Lab05/LAB5_mach/LAB5/ALU_2/simulation/qsim/ALU.msim.vcd
$comment
	File created using the following command:
		vcd file ALU.msim.vcd -direction
$end
$date
	Mon Oct 14 01:37:56 2024
$end
$version
	ModelSim Version 10.1d
$end
$timescale
	1ps
$end
$scope module multiplier_vlg_vec_tst $end
$var reg 4 ! A [3:0] $end
$var reg 4 " B [3:0] $end
$var wire 1 # R [6] $end
$var wire 1 $ R [5] $end
$var wire 1 % R [4] $end
$var wire 1 & R [3] $end
$var wire 1 ' R [2] $end
$var wire 1 ( R [1] $end
$var wire 1 ) R [0] $end
$var wire 1 * sampler $end
$scope module i1 $end
$var wire 1 + gnd $end
$var wire 1 , vcc $end
$var wire 1 - unknown $end
$var tri1 1 . devclrn $end
$var tri1 1 / devpor $end
$var tri1 1 0 devoe $end
$var wire 1 1 inst0~combout $end
$var wire 1 2 inst5~combout $end
$var wire 1 3 inst15|inst|inst4~combout $end
$var wire 1 4 inst15|inst1|inst8~0_combout $end
$var wire 1 5 inst15|inst2|inst8~0_combout $end
$var wire 1 6 inst15|inst3|inst|3~combout $end
$var wire 1 7 inst15|inst2|inst|1~combout $end
$var wire 1 8 inst15|inst1|inst|1~combout $end
$var wire 1 9 inst17|inst|inst4~combout $end
$var wire 1 : inst17|inst1|inst8~0_combout $end
$var wire 1 ; inst17|inst2|inst8~0_combout $end
$var wire 1 < inst17|inst3|inst|3~combout $end
$var wire 1 = inst17|inst2|inst|1~combout $end
$var wire 1 > inst17|inst1|inst|1~combout $end
$var wire 1 ? inst19|inst|inst4~combout $end
$var wire 1 @ inst19|inst1|inst8~0_combout $end
$var wire 1 A inst19|inst2|inst8~0_combout $end
$var wire 1 B inst19|inst3|inst|3~combout $end
$var wire 1 C inst19|inst2|inst|1~combout $end
$var wire 1 D inst19|inst1|inst|1~combout $end
$var wire 1 E inst19|inst|inst|1~combout $end
$var wire 1 F inst17|inst|inst|1~combout $end
$var wire 1 G inst15|inst|inst|1~combout $end
$var wire 1 H inst11~combout $end
$var wire 1 I B~combout [3] $end
$var wire 1 J B~combout [2] $end
$var wire 1 K B~combout [1] $end
$var wire 1 L B~combout [0] $end
$var wire 1 M A~combout [3] $end
$var wire 1 N A~combout [2] $end
$var wire 1 O A~combout [1] $end
$var wire 1 P A~combout [0] $end
$upscope $end
$upscope $end
$enddefinitions $end
#0
$dumpvars
b1000 !
b100 "
0)
0(
0'
0&
0%
1$
0#
x*
0+
1,
x-
1.
1/
10
01
02
03
04
05
06
07
08
09
0:
0;
1<
0=
0>
0?
0@
0A
0B
1C
0D
0E
0F
0G
0H
0L
0K
1J
0I
0P
0O
0N
1M
$end
#30000
b1100 !
b1101 !
b1100 "
b1110 "
b1111 "
1L
1K
1I
1P
1N
0*
1H
1G
12
11
17
16
1E
0C
1B
1A
1F
1=
18
07
15
1>
0=
1;
0B
1D
1)
1(
1&
0$
1#
1'
0F
19
0>
06
0E
1?
0D
0<
0#
1%
1>
1E
0?
1=
0;
1D
1C
0A
0'
0&
0%
0E
1?
1<
1B
1&
1%
1$
0D
1@
0C
1A
0&
1#
1C
0B
0%
0$
1$
0#
#60000
b1111 !
b1011 "
b1011 !
b1010 !
b1001 "
0K
0J
0P
1O
0N
1*
17
16
05
1F
0=
0<
09
0H
1E
0?
1D
0C
02
1=
06
0@
1C
0A
08
1'
0)
1&
1%
0$
0D
1@
0=
0C
1B
0F
1$
1C
1D
0@
0%
0$
1#
0'
0C
1$
1%
0$
#90000
b10 !
b1000 "
b110 !
b1010 "
0L
1K
1N
0M
0*
0G
01
18
07
15
1C
0B
17
05
1F
0>
16
0(
1$
0#
1>
06
0E
1=
1'
1E
0=
0D
1@
0&
1D
0@
0C
1A
1&
0%
1C
0A
1B
1%
0$
0B
1$
1#
0#
#120000
b10 "
b100 !
b110 "
b101 !
b1101 !
b1001 !
1P
0O
0N
1M
1J
0I
1*
1G
0F
19
0D
08
0C
07
1<
16
1F
09
1C
1=
1(
0'
0%
0$
0>
1D
1'
1$
0E
1%
0&
#150000
b111 "
b1111 "
b1011 !
b1011 "
b1010 !
b10 !
b110 !
0P
1O
1N
0M
1L
0J
1I
0*
0F
0D
1@
18
0C
1A
17
12
0<
06
1F
1B
1>
08
14
0=
0'
0%
0$
1E
0F
07
15
1D
0@
1'
1#
0>
16
1C
0A
1&
0'
1%
0E
1=
0B
1$
0D
1@
0&
0#
0C
1A
0%
1B
0$
1#
#180000
b11 "
b111 "
b111 !
b1111 !
1P
1M
1J
0I
1*
1H
0G
1F
13
1<
06
11
1>
0=
1;
1D
1C
0A
0@
18
1=
0;
17
1E
0D
0<
0B
1)
0(
1'
1%
1$
0F
19
1D
1<
0>
1:
0C
1&
0%
0#
1>
1C
0E
0=
1;
0'
1%
0$
1E
0D
0<
1$
0&
0C
1&
0%
0$
#210000
b110 "
0L
0*
0H
1G
03
02
01
04
07
0)
1(
17
05
0>
1>
16
0E
1E
1=
0&
1D
1&
1%
#240000
b1011 !
b11 !
b111 "
1L
0N
0M
1*
1H
0G
13
0=
07
1<
06
08
14
0D
0>
1C
1=
0;
1)
0(
1F
09
17
0E
1D
0<
0%
1$
0C
1'
0&
1%
0$
#270000
b101 "
b10 !
b1010 !
0P
1M
0K
0*
0H
1G
0F
03
1<
11
18
04
08
1C
1F
0)
1(
0'
0F
1$
1'
0'
#300000
b1 "
b0 "
b10 !
0M
0L
0J
1*
0<
01
0G
1>
0:
0C
07
1E
0=
0(
0>
0D
0$
1&
0E
0%
0&
#330000
b0 !
b1000 "
b100 !
b1010 "
b101 !
b1110 "
b1111 "
1L
1K
1J
1I
1P
0O
1N
0*
1H
1G
12
17
1F
1=
1E
1C
18
1>
1D
1)
1(
1'
1&
1$
0F
19
0E
1?
1%
0>
1:
0D
1@
0'
0&
1E
0?
0=
1;
0C
1A
0%
0@
1<
1B
1&
0$
1#
#360000
b1011 "
0J
1*
1F
1=
0;
09
1D
0<
1>
0:
1'
1C
0A
0E
1?
0=
1%
0B
1$
0&
0#
#390000
b111 !
b1001 "
b1101 "
0K
1J
1O
0*
07
0F
0>
1=
1:
19
0D
1@
1E
0?
1D
0=
1;
0C
1A
0'
0%
0@
1<
1B
1&
1%
0$
1#
#420000
b11 !
b1 !
b1111 "
b1011 "
1K
0J
0O
0N
1*
1F
1>
1=
0;
0:
09
0D
1C
0A
02
0E
1?
1D
0<
0=
0>
0B
08
1'
0%
1$
0C
1E
0?
0F
0&
1%
0#
0D
0$
1&
0'
0%
#450000
b1001 !
b1000 !
b1100 !
b1110 !
b1111 "
1J
0P
1O
1N
1M
0*
1>
1=
1<
0H
0E
1D
18
1C
17
12
1B
16
11
1E
0D
1@
0C
1A
1F
0>
1:
08
14
0=
1;
07
15
0)
0&
1%
1$
1#
1C
0B
0E
1=
0F
17
1D
0@
0<
1>
0:
06
1&
0%
0$
1'
0D
1@
0>
1:
0A
1E
0;
1$
0#
0&
0'
1%
0C
1A
0E
0=
1;
1B
1<
0%
1&
0B
1D
0@
0<
1C
0$
0&
1#
0A
0#
1%
1$
1B
1#
#480000
b111 "
b110 !
b100 !
0O
0M
0I
1*
0G
0D
1>
0:
18
04
0B
1<
16
01
0C
1E
1F
05
1C
0(
0%
0#
0$
06
1&
1'
1$
1=
0;
1D
0<
0C
1%
0$
#510000
b110 "
b101 !
b1 !
b1110 "
b1001 !
b1011 !
1P
1O
0N
1M
0L
1I
0*
1G
0F
0E
1?
19
0D
1@
0>
1:
08
14
0=
07
02
1B
1<
16
1A
1E
0?
1;
1F
09
17
18
04
1(
0'
0&
0%
1#
0B
1D
0@
0<
0F
19
07
1&
1'
0A
0#
1%
0'
1B
1#
#540000
b1100 "
b1010 !
b1110 !
b100 "
0P
1N
0K
0I
1*
0G
1F
0E
09
1=
08
06
0D
0B
1>
0:
1D
0F
0=
0(
1'
0&
0%
0#
1E
1=
0;
0D
1%
0'
1D
1<
1&
0%
1C
1%
1$
#570000
b0 "
b110 !
b100 !
b101 !
1P
0O
0M
0J
0*
0>
0<
0=
0E
0C
0D
0&
0$
0%
#600000
b10 "
b1 !
b1010 "
b1110 "
b11 !
1O
0N
1K
1J
1I
1*
1G
1D
1>
18
1F
1E
0E
1?
0F
19
1(
1%
1'
1&
0D
1@
0>
1:
0&
0'
1C
1E
0?
1=
0%
1$
1&
#630000
b1111 "
b1011 !
b1010 !
b1110 !
b1011 "
0P
1N
1M
1L
0J
0*
1F
0E
09
0C
1A
17
12
1B
16
11
1>
0:
0B
08
14
07
15
1E
1'
0&
0$
1#
0F
17
0>
06
0#
1&
1>
0E
0=
0'
1E
1D
0@
0&
1C
0A
1&
1%
1B
1$
1#
#660000
b1001 "
b1000 "
b110 !
b1100 "
0M
0L
0K
1J
1*
0B
16
01
0G
02
18
07
04
0>
1=
1:
1;
05
08
1F
1>
0:
0E
0D
1@
0#
0(
1<
06
0F
1E
0=
0C
1A
1'
0&
0%
1C
1=
0;
1D
0@
1B
0'
1&
0$
0D
1@
0<
0C
1$
1%
1#
0%
0$
#690000
b100 !
b1100 !
b1000 "
0J
0O
1M
0*
0>
0=
1D
0@
0B
0E
0D
1C
0A
1%
0#
1B
0&
0%
1$
1#
#720000
b0 "
b1 "
b1110 !
1O
1L
0I
1*
1G
12
11
0C
0B
18
17
1(
0$
0#
1F
1>
1E
1'
1&
#750000
b1111 !
b1011 !
b11 !
b0 "
0L
1P
0N
0M
0*
0G
02
01
08
07
0(
0F
0>
0E
0'
0&
#780000
b10 "
b110 "
b1 !
b101 !
b111 "
0O
1N
1L
1K
1J
1*
1G
1=
17
12
1H
1F
1D
1>
18
1(
1)
1'
1E
0F
19
1%
0>
1:
1&
0'
0E
0=
1;
0D
1<
0&
1C
0%
1$
#810000
b1111 "
b100 !
b1101 "
b1001 "
b110 !
b1000 "
0P
1O
0L
0K
0J
1I
0*
0H
0G
1F
09
1D
02
07
1=
0;
0C
1A
0:
08
0D
1@
0<
1B
0)
0(
1'
1%
0$
0=
0F
0%
1#
1D
0@
0'
1C
0A
1%
0B
1$
0#
#840000
b0 "
b111 !
1P
0I
1*
0D
0C
0%
0$
#870000
b10 "
b110 "
b101 !
b111 "
0O
1L
1K
1J
0*
1G
1H
12
17
1F
1=
18
1>
1D
1(
1)
1'
0F
19
1E
1%
0>
1:
0'
1&
0E
0=
1;
0D
1<
0&
1C
0%
1$
#900000
b1101 !
b1001 !
b1000 !
b101 "
b1 "
b1010 !
0K
0J
0P
1O
0N
1M
1*
07
1F
1=
0;
09
0H
02
11
0:
1D
0<
08
17
1'
0)
0=
0C
0F
1>
1%
0D
1E
0$
0'
0%
1&
#930000
b1110 !
b1111 !
b1101 !
1P
0O
1N
0*
1H
0G
12
18
1)
0(
1F
1'
#960000
b1001 "
b101 !
b100 !
0P
0M
1I
1*
0H
01
1C
07
0)
1$
0>
0E
0&
#990000
b1011 "
b1111 "
b110 !
b1110 !
b1111 !
1P
1O
1M
1K
1J
0*
1H
0F
1E
19
13
1D
1>
08
14
1B
1<
16
11
17
1=
1:
18
0E
1?
1F
09
15
0C
1A
0=
1;
0D
1@
1)
0'
1&
1%
1#
1=
0F
19
0>
06
0B
0<
1C
0&
1'
0$
0%
1D
1>
1E
0?
0=
0C
0'
0#
1$
0E
1?
0@
1%
1&
0$
0D
1@
1C
0A
0&
0C
1A
1B
0%
1$
0B
0$
1#
0#
