Lab01/vemach/simulation/qsim/Lab01_CE118_22521154.msim.vcd
$comment
	File created using the following command:
		vcd file Lab01_CE118_22521154.msim.vcd -direction
$end
$date
	Wed Sep 18 11:14:21 2024
$end
$version
	ModelSim Version 10.1d
$end
$timescale
	1ps
$end
$scope module Lab01_CE118_22521154_vlg_vec_tst $end
$var reg 1 ! KEY0 $end
$var reg 1 " KEY1 $end
$var reg 1 # SW0 $end
$var reg 1 $ SW1 $end
$var reg 1 % SW2 $end
$var wire 1 & LEDG1 $end
$var wire 1 ' LEDG2 $end
$var wire 1 ( LEGG0 $end
$var wire 1 ) sampler $end
$scope module i1 $end
$var wire 1 * gnd $end
$var wire 1 + vcc $end
$var wire 1 , unknown $end
$var tri1 1 - devclrn $end
$var tri1 1 . devpor $end
$var tri1 1 / devoe $end
$var wire 1 0 KEY0~combout $end
$var wire 1 1 KEY0~clkctrl_outclk $end
$var wire 1 2 KEY1~combout $end
$var wire 1 3 SW2~combout $end
$var wire 1 4 KEY1~clkctrl_outclk $end
$var wire 1 5 T2~1_combout $end
$var wire 1 6 SW0~combout $end
$var wire 1 7 SW1~combout $end
$var wire 1 8 T1~3_combout $end
$var wire 1 9 T1~_emulated_regout $end
$var wire 1 : T1~1_combout $end
$var wire 1 ; T1~2_combout $end
$var wire 1 < T0~3_combout $end
$var wire 1 = T0~_emulated_regout $end
$var wire 1 > T0~1_combout $end
$var wire 1 ? T0~2_combout $end
$var wire 1 @ T2~3_combout $end
$var wire 1 A T2~_emulated_regout $end
$var wire 1 B T2~2_combout $end
$upscope $end
$upscope $end
$enddefinitions $end
#0
$dumpvars
0!
1"
0#
0$
0%
0&
0'
0(
x)
0*
1+
x,
1-
1.
1/
00
01
12
03
14
05
06
07
18
09
0:
0;
0<
0=
0>
0?
1@
0A
0B
$end
#20000
1!
0"
10
02
04
11
0)
1A
19
1B
1;
08
1'
1&
#40000
0!
00
01
1)
#60000
1!
10
11
0)
09
0;
1<
18
0&
#80000
0!
00
01
1)
#100000
1!
10
11
0)
1=
19
1?
1;
0@
1(
1&
#120000
0!
00
01
1)
#140000
1!
10
11
0)
0A
0B
0<
08
0'
#160000
0!
00
01
1)
#180000
1!
10
11
0)
0=
09
0?
0;
1@
18
0(
0&
#200000
0!
00
01
1)
#220000
1!
10
11
0)
1A
19
1B
1;
08
1'
1&
#240000
1#
1"
0!
16
12
00
01
14
1)
1?
1>
0B
0;
1<
18
1(
0'
0&
0A
09
#260000
0#
0"
1!
06
02
10
11
04
0)
1A
1=
19
1B
0?
1;
08
1'
0(
1&
#280000
0!
00
01
1)
#300000
1!
10
11
0)
09
0;
0<
18
0&
#320000
0!
00
01
1)
#340000
1!
10
11
0)
0=
19
1?
1;
0@
1(
1&
#360000
0!
00
01
1)
#380000
1!
10
11
0)
0A
0B
1<
08
0'
#400000
0!
00
01
1)
#420000
1!
10
11
0)
1=
09
0?
0;
1@
18
0(
0&
#440000
0!
00
01
1)
#460000
1!
10
11
0)
1A
19
1B
1;
08
1'
1&
#480000
0!
00
01
1)
#500000
1%
1#
1"
1!
13
16
12
10
11
14
0)
15
1?
0;
18
1(
0&
0A
0=
09
#520000
0%
0#
0"
0!
03
06
02
00
01
04
1)
#540000
1!
10
11
0)
1A
1=
19
0B
0?
1;
0@
0<
0'
0(
1&
#560000
0!
00
01
1)
#580000
1!
10
11
0)
0A
0=
1B
1?
1@
1'
1(
#600000
0!
00
01
1)
#620000
1!
10
11
0)
1A
0B
1<
08
0'
#640000
0!
00
01
1)
#660000
1!
10
11
0)
1=
09
0?
0;
0@
18
0(
0&
#680000
0!
00
01
1)
#700000
1!
10
11
0)
0A
19
1B
1;
08
1'
1&
#720000
0!
00
01
1)
#740000
1!
10
11
0)
09
0;
0<
18
0&
#760000
0!
00
01
1)
#780000
1!
10
11
0)
0=
19
1?
1;
1@
1(
1&
#800000
0!
00
01
1)
#820000
1!
10
11
0)
1A
0B
1<
08
0'
#840000
0!
00
01
1)
#860000
1!
10
11
0)
1=
09
0?
0;
0@
18
0(
0&
#880000
0!
00
01
1)
#900000
1!
10
11
0)
0A
19
1B
1;
08
1'
1&
#920000
0!
00
01
1)
#940000
1!
10
11
0)
09
0;
0<
18
0&
#960000
0!
00
01
1)
#980000
1!
10
11
0)
0=
19
1?
1;
1@
1(
1&
