Lab05/LAB5_mach/Lab5_02/Lab4/datapath/simulation/qsim/datapath.msim.vcd
$comment
	File created using the following command:
		vcd file datapath.msim.vcd -direction
$end
$date
	Thu Oct 31 13:37:41 2024
$end
$version
	ModelSim Version 10.1d
$end
$timescale
	1ps
$end
$scope module parallel_datapath_vlg_vec_tst $end
$var reg 1 ! CLK $end
$var reg 4 " DATA [3:0] $end
$var reg 2 # IE [1:0] $end
$var reg 1 $ OE $end
$var reg 1 % PASS $end
$var reg 2 & RAA [1:0] $end
$var reg 2 ' RBB [1:0] $end
$var reg 1 ( REA $end
$var reg 1 ) REB $end
$var reg 3 * S [2:0] $end
$var reg 2 + WA [1:0] $end
$var reg 1 , WE $end
$var wire 1 - RESULT [3] $end
$var wire 1 . RESULT [2] $end
$var wire 1 / RESULT [1] $end
$var wire 1 0 RESULT [0] $end
$var wire 1 1 sampler $end
$scope module i1 $end
$var wire 1 2 gnd $end
$var wire 1 3 vcc $end
$var wire 1 4 unknown $end
$var tri1 1 5 devclrn $end
$var tri1 1 6 devpor $end
$var tri1 1 7 devoe $end
$var wire 1 8 inst|inst10|inst~regout $end
$var wire 1 9 inst|inst3|inst~regout $end
$var wire 1 : inst|inst6|inst~regout $end
$var wire 1 ; inst2|inst2|inst2|5~0_combout $end
$var wire 1 < REA~combout $end
$var wire 1 = REB~combout $end
$var wire 1 > CLK~combout $end
$var wire 1 ? PASS~combout $end
$var wire 1 @ inst|A[0]~0_combout $end
$var wire 1 A inst|B[0]~0_combout $end
$var wire 1 B inst2|inst2|inst3|5~0_combout $end
$var wire 1 C inst2|inst2|inst3|5~1_combout $end
$var wire 1 D inst2|inst2|inst3|5~2_combout $end
$var wire 1 E inst2|inst2|inst3|5~3_combout $end
$var wire 1 F inst2|inst2|inst3|5~4_combout $end
$var wire 1 G WE~combout $end
$var wire 1 H inst|inst17|inst3~combout $end
$var wire 1 I inst|inst15|inst~regout $end
$var wire 1 J inst|B[0]~1_combout $end
$var wire 1 K inst|inst17|inst2~combout $end
$var wire 1 L inst|inst13|inst~regout $end
$var wire 1 M inst|B[0]~2_combout $end
$var wire 1 N inst|inst17|inst~combout $end
$var wire 1 O inst|inst5|inst~regout $end
$var wire 1 P inst|B[0]~3_combout $end
$var wire 1 Q inst|inst17|inst1~combout $end
$var wire 1 R inst|inst7|inst~regout $end
$var wire 1 S inst|A[0]~1_combout $end
$var wire 1 T inst|A[0]~9_combout $end
$var wire 1 U inst|A[0]~10_combout $end
$var wire 1 V inst1|inst|inst|inst8|inst3|5~0_combout $end
$var wire 1 W inst1|inst1|inst|inst8|inst3|5~0_combout $end
$var wire 1 X inst1|inst1|inst|inst8|inst3|5~1_combout $end
$var wire 1 Y inst1|inst2|inst|inst8|inst3|5~0_combout $end
$var wire 1 Z inst1|inst2|inst|inst8|inst3|5~1_combout $end
$var wire 1 [ inst|inst8|inst~regout $end
$var wire 1 \ inst|B[3]~10_combout $end
$var wire 1 ] inst|inst|inst~regout $end
$var wire 1 ^ inst2|inst2|inst2|5~1_combout $end
$var wire 1 _ inst2|inst2|inst2|5~2_combout $end
$var wire 1 ` inst2|inst2|inst2|5~3_combout $end
$var wire 1 a inst2|inst2|inst2|5~4_combout $end
$var wire 1 b inst2|inst2|inst2|5~5_combout $end
$var wire 1 c inst2|inst2|inst2|5~6_combout $end
$var wire 1 d inst2|inst2|inst2|5~7_combout $end
$var wire 1 e inst2|inst2|inst2|5~8_combout $end
$var wire 1 f inst2|inst2|inst2|5~9_combout $end
$var wire 1 g inst|inst2|inst~regout $end
$var wire 1 h inst|A[3]~2_combout $end
$var wire 1 i inst|A[3]~3_combout $end
$var wire 1 j inst3|inst1|6~combout $end
$var wire 1 k OE~combout $end
$var wire 1 l inst2|inst2|inst|5~0_combout $end
$var wire 1 m inst|inst1|inst~regout $end
$var wire 1 n inst|B[2]~7_combout $end
$var wire 1 o inst|inst9|inst~regout $end
$var wire 1 p inst|B[2]~8_combout $end
$var wire 1 q inst|B[2]~9_combout $end
$var wire 1 r inst2|inst2|inst|5~1_combout $end
$var wire 1 s inst2|inst2|inst|5~2_combout $end
$var wire 1 t inst2|inst2|inst|5~3_combout $end
$var wire 1 u inst2|inst2|inst|5~4_combout $end
$var wire 1 v inst|inst11|inst~regout $end
$var wire 1 w inst|A[2]~4_combout $end
$var wire 1 x inst|A[2]~5_combout $end
$var wire 1 y inst3|inst2|5~0_combout $end
$var wire 1 z inst2|inst2|inst1|5~0_combout $end
$var wire 1 { inst|B[1]~4_combout $end
$var wire 1 | inst|inst14|inst~regout $end
$var wire 1 } inst|inst12|inst~regout $end
$var wire 1 ~ inst|B[1]~5_combout $end
$var wire 1 !! inst|B[1]~6_combout $end
$var wire 1 "! inst2|inst2|inst1|5~1_combout $end
$var wire 1 #! inst2|inst2|inst1|5~2_combout $end
$var wire 1 $! inst2|inst2|inst1|5~3_combout $end
$var wire 1 %! inst2|inst2|inst1|5~4_combout $end
$var wire 1 &! inst|inst4|inst~regout $end
$var wire 1 '! inst|A[1]~6_combout $end
$var wire 1 (! inst|A[1]~7_combout $end
$var wire 1 )! inst|A[1]~8_combout $end
$var wire 1 *! inst3|inst3|5~0_combout $end
$var wire 1 +! inst3|inst4|5~0_combout $end
$var wire 1 ,! DATA~combout [3] $end
$var wire 1 -! DATA~combout [2] $end
$var wire 1 .! DATA~combout [1] $end
$var wire 1 /! DATA~combout [0] $end
$var wire 1 0! S~combout [2] $end
$var wire 1 1! S~combout [1] $end
$var wire 1 2! S~combout [0] $end
$var wire 1 3! WA~combout [1] $end
$var wire 1 4! WA~combout [0] $end
$var wire 1 5! IE~combout [1] $end
$var wire 1 6! IE~combout [0] $end
$var wire 1 7! RAA~combout [1] $end
$var wire 1 8! RAA~combout [0] $end
$var wire 1 9! RBB~combout [1] $end
$var wire 1 :! RBB~combout [0] $end
$upscope $end
$upscope $end
$enddefinitions $end
#0
$dumpvars
0!
b1001 "
b1 #
0$
1%
b0 &
b0 '
1(
0)
b0 *
b0 +
1,
z0
z/
z.
z-
x1
02
13
x4
15
16
17
08
09
0:
0;
1<
0=
0>
1?
1@
0A
1B
1C
0D
1E
1F
1G
0H
0I
0J
0K
0L
0M
1N
0O
0P
0Q
0R
1S
1T
1U
0V
0W
0X
0Y
0Z
0[
0\
0]
0^
0_
0`
1a
0b
0c
0d
0e
1f
0g
1h
0i
0j
0k
0l
0m
0n
0o
0p
0q
0r
0s
0t
0u
0v
1w
0x
0y
0z
0{
0|
0}
0~
0!!
0"!
0#!
0$!
0%!
0&!
0'!
0(!
0)!
0*!
0+!
1/!
0.!
0-!
1,!
02!
01!
00!
04!
03!
16!
05!
08!
07!
0:!
09!
$end
#5000
1!
1>
01
1]
1O
1i
0U
1j
1b
1+!
1V
0C
#10000
b0 #
b10 +
1)
b100 *
b110 *
0!
1=
11!
10!
13!
06!
0>
11
1J
1A
1#!
1s
1c
1_
1C
1$!
1X
0N
1K
0a
0E
1;
1\
1M
1t
1Z
1^
1P
0b
1d
0c
0_
0C
#15000
1!
1>
01
1[
1L
#20000
b11 +
b10 &
b111 *
b1 +
0)
0!
12!
17!
14!
03!
0=
0>
11
0#!
1"!
0s
1r
1Y
1W
0S
0@
1Q
0K
0J
0A
0Z
0X
1x
0w
0T
1U
1b
0t
1y
0r
0x
0U
0+!
0V
1D
1C
1l
0y
1r
1+!
1V
0D
0C
0F
0$!
1E
1u
0l
1F
1$!
0E
0u
#25000
1!
1>
01
1g
1R
#30000
b1 '
b11 *
b1 *
b0 &
b11 +
1)
0!
13!
07!
01!
00!
1:!
1=
0>
11
0Q
1H
1S
1@
1D
0$!
1A
1w
1T
1U
1E
0M
0U
0+!
0V
0D
1C
1+!
1V
1D
0C
0F
0E
1F
1E
#35000
1!
1>
01
1I
18
#40000
b11 '
b10 +
b101 *
b10 &
0!
17!
10!
04!
19!
0>
11
0S
0@
1$!
0d
1c
1_
0D
1K
0H
1J
0A
1x
0w
0T
1U
0E
0\
1M
0P
1y
1s
0r
0x
0U
0+!
0V
1C
1P
1l
0y
0s
1r
1+!
1V
0C
0F
0$!
1u
0l
1F
1$!
0u
#45000
1!
1>
01
#50000
0%
1$
b10 '
b0 +
b0 '
b1 *
b0 &
0!
0?
1k
07!
00!
03!
0:!
09!
0>
11
0+!
1y
0j
0;
1S
1@
0$!
1d
0c
0_
1D
1N
0K
1A
10
0/
0.
1-
0F
1l
0f
1w
1T
1E
1\
00
1.
0-
1u
#55000
1!
1>
01
1m
0]
0O
1x
1n
0i
0^
1U
0P
1*!
0y
1s
0r
1q
0b
0d
1c
0V
0D
1C
1z
0l
1t
1r
0Y
0E
1/
0.
1%!
0u
1Z
#60000
b1 +
1%
0$
b1 '
b11 +
0!
1?
0k
1:!
14!
13!
0>
11
0*!
1y
0n
0J
0N
1H
z0
z/
z.
z-
0z
1l
0q
1^
0M
0%!
1u
0r
1Y
1d
0c
1P
0Z
#65000
1!
1>
01
1v
0I
08
#70000
b11 '
b101 *
b10 &
b10 +
0!
04!
17!
10!
19!
0>
11
1K
0H
0S
0@
0t
0d
1c
1_
1D
1p
1J
0A
0w
0T
1i
1E
1q
0^
0\
0P
0x
0U
1j
1b
1;
1r
0Y
1d
0c
0_
0D
0y
0r
1+!
1D
0C
1f
0E
0l
1F
1E
0u
#75000
1!
1>
01
#80000
0%
b10 '
b0 +
b0 '
b1 *
b0 &
0!
0?
07!
00!
03!
0:!
09!
0>
11
0+!
1y
0j
0;
1S
1@
1t
0d
1c
0D
1N
0K
0p
1n
1A
0F
1l
0f
1w
1T
0i
1U
0E
1\
1P
1M
1u
1x
0y
0b
1C
0P
1*!
1r
1Z
0l
1z
0u
1%!
#85000
1!
1>
01
1&!
0m
1'!
1{
0x
0n
1)!
1!!
0*!
0r
0Z
0q
1+!
1#!
0W
0z
0s
1r
1Y
1F
1$!
1X
0%!
0t
#90000
b1 +
1%
b1 '
b11 +
0!
1?
1:!
14!
13!
0>
11
0+!
1*!
0{
0J
0N
1H
0F
1z
0!!
1^
0M
1%!
0"!
1W
1d
0c
1P
0X
#95000
1!
1>
01
1|
0v
#100000
b11 '
b101 *
b10 &
b10 +
0!
04!
17!
10!
19!
0>
11
1K
0H
0'!
0S
0@
0$!
0d
1c
1_
1D
1~
1J
0A
0)!
1x
0w
0T
1i
1E
1!!
0^
0\
0P
0*!
1y
1s
0r
0x
0U
1j
1b
1;
0W
1d
0c
0_
0D
0z
1l
0y
0s
1r
1+!
1D
0C
1f
0E
0%!
1u
0l
1F
1E
0u
#105000
1!
1>
01
#110000
0%
b10 '
b0 +
b0 '
b1 *
b0 &
0!
0?
07!
00!
03!
0:!
09!
0>
11
0+!
1y
0j
0;
1'!
1S
1@
1$!
0d
1c
0D
1N
0K
0~
1{
1A
0F
1l
0f
1)!
1w
1T
0i
1U
0E
1\
1P
1M
1u
1+!
1"!
1X
0y
0b
1C
0P
1F
0l
0u
#115000
1!
1>
01
0&!
1O
0'!
0{
0U
1P
0)!
0!!
1V
1D
0C
0+!
0#!
0X
1W
1E
0F
0$!
#120000
b1 +
1%
b1 '
b11 +
0!
1?
1:!
14!
13!
0>
11
1+!
0J
0N
1H
1F
1^
0M
1d
0c
#125000
1!
1>
01
0|
1I
#130000
b11 '
b101 *
b10 &
b10 +
0!
04!
17!
10!
19!
0>
11
1K
0H
0S
0@
1$!
0d
1c
1_
0D
1J
0A
1x
0w
0T
1i
1U
0E
0^
0\
1M
0P
1y
1s
0r
0x
0U
1j
1b
1;
0+!
0V
1C
1d
0c
0_
1P
1l
0y
0s
1r
1+!
1V
0C
1f
0F
0$!
1u
0l
1F
1$!
0u
#135000
1!
1>
01
#140000
b100 *
0%
b10 '
b0 +
b0 '
b0 *
b0 &
0!
0?
07!
03!
0:!
09!
02!
00!
0>
11
0+!
1y
0j
0;
1S
1@
1N
0K
1A
0"!
0r
0d
0Y
0W
0$!
1D
0F
1l
0f
1w
1T
0i
1\
1E
1u
0y
0b
0l
0u
#145000
1!
1>
01
0O
1U
0P
0V
0D
1C
0E
#150000
0,
1$
b1 *
1%
b10 '
b10 &
0!
0G
1k
1?
17!
19!
12!
0>
11
0N
0S
0@
0J
0A
1"!
1r
1c
1Y
1W
00
0/
0.
0-
1x
0w
0T
1i
1^
1P
1y
1s
0r
0x
0U
1j
1b
1;
1d
0c
1l
1t
0y
0s
1r
1+!
1V
1D
0C
1f
1.
1-
1u
0l
0t
1F
1E
0.
10
0u
#155000
1!
1>
01
#160000
0(
0)
0$
b0 *
0%
b0 '
b0 &
0!
0<
0=
0k
0?
07!
09!
02!
0>
11
0+!
1y
0j
0;
0"!
0r
0d
0Y
0W
z0
z/
z.
z-
0F
1l
0f
1u
#165000
1!
1>
01
#170000
0!
0>
11
#175000
1!
1>
01
#180000
0!
0>
11
#185000
1!
1>
01
#190000
0!
0>
11
#195000
1!
1>
01
#200000
0!
0>
11
#205000
1!
1>
01
#210000
0!
0>
11
#215000
1!
1>
01
#220000
0!
0>
11
#225000
1!
1>
01
#230000
0!
0>
11
#235000
1!
1>
01
#240000
0!
0>
11
#245000
1!
1>
01
#250000
0!
0>
11
#255000
1!
1>
01
#260000
0!
0>
11
#265000
1!
1>
01
#270000
0!
0>
11
#275000
1!
1>
01
#280000
0!
0>
11
#285000
1!
1>
01
#290000
0!
0>
11
#295000
1!
1>
01
#300000
0!
0>
11
#305000
1!
1>
01
#310000
0!
0>
11
#315000
1!
1>
01
#320000
0!
0>
11
#325000
1!
1>
01
#330000
0!
0>
11
#335000
1!
1>
01
#340000
0!
0>
11
#345000
1!
1>
01
#350000
0!
0>
11
#355000
1!
1>
01
#360000
0!
0>
11
#365000
1!
1>
01
#370000
0!
0>
11
#375000
1!
1>
01
#380000
0!
0>
11
#385000
1!
1>
01
#390000
0!
0>
11
#395000
1!
1>
01
#400000
0!
0>
11
#405000
1!
1>
01
#410000
0!
0>
11
#415000
1!
1>
01
#420000
0!
0>
11
#425000
1!
1>
01
#430000
0!
0>
11
#435000
1!
1>
01
#440000
0!
0>
11
#445000
1!
1>
01
#450000
0!
0>
11
#455000
1!
1>
01
#460000
0!
0>
11
#465000
1!
1>
01
#470000
0!
0>
11
#475000
1!
1>
01
#480000
0!
0>
11
#485000
1!
1>
01
#490000
0!
0>
11
#495000
1!
1>
01
#500000
0!
0>
11
#505000
1!
1>
01
#510000
0!
0>
11
#515000
1!
1>
01
#520000
0!
0>
11
#525000
1!
1>
01
#530000
0!
0>
11
#535000
1!
1>
01
#540000
0!
0>
11
#545000
1!
1>
01
#550000
0!
0>
11
#555000
1!
1>
01
#560000
0!
0>
11
#565000
1!
1>
01
#570000
0!
0>
11
#575000
1!
1>
01
#580000
0!
0>
11
#585000
1!
1>
01
#590000
0!
0>
11
#595000
1!
1>
01
#600000
0!
0>
11
#605000
1!
1>
01
#610000
0!
0>
11
#615000
1!
1>
01
#620000
0!
0>
11
#625000
1!
1>
01
#630000
0!
0>
11
#635000
1!
1>
01
#640000
0!
0>
11
#645000
1!
1>
01
#650000
0!
0>
11
#655000
1!
1>
01
#660000
0!
0>
11
#665000
1!
1>
01
#670000
0!
0>
11
#675000
1!
1>
01
#680000
0!
0>
11
#685000
1!
1>
01
#690000
0!
0>
11
#695000
1!
1>
01
#700000
0!
0>
11
#705000
1!
1>
01
#710000
0!
0>
11
#715000
1!
1>
01
#720000
0!
0>
11
#725000
1!
1>
01
#730000
0!
0>
11
#735000
1!
1>
01
#740000
0!
0>
11
#745000
1!
1>
01
#750000
0!
0>
11
#755000
1!
1>
01
#760000
0!
0>
11
#765000
1!
1>
01
#770000
0!
0>
11
#775000
1!
1>
01
#780000
0!
0>
11
#785000
1!
1>
01
#790000
0!
0>
11
#795000
1!
1>
01
#800000
0!
0>
11
#805000
1!
1>
01
#810000
0!
0>
11
#815000
1!
1>
01
#820000
0!
0>
11
#825000
1!
1>
01
#830000
0!
0>
11
#835000
1!
1>
01
#840000
0!
0>
11
#845000
1!
1>
01
#850000
0!
0>
11
#855000
1!
1>
01
#860000
0!
0>
11
#865000
1!
1>
01
#870000
0!
0>
11
#875000
1!
1>
01
#880000
0!
0>
11
#885000
1!
1>
01
#890000
0!
0>
11
#895000
1!
1>
01
#900000
0!
0>
11
#905000
1!
1>
01
#910000
0!
0>
11
#915000
1!
1>
01
#920000
0!
0>
11
#925000
1!
1>
01
#930000
0!
0>
11
#935000
1!
1>
01
#940000
0!
0>
11
#945000
1!
1>
01
#950000
0!
0>
11
#955000
1!
1>
01
#960000
0!
0>
11
#965000
1!
1>
01
#970000
0!
0>
11
#975000
1!
1>
01
#980000
0!
0>
11
#985000
1!
1>
01
#990000
0!
0>
11
#995000
1!
1>
01
